[    0.000000] Booting Linux on physical CPU 0x0000000000 [0x412fd050]
[    0.000000] Linux version 6.1.57-tano-rk-standard-gea9e2a9344-tano0.2.1.20.1.0 (oe-user@oe-host) (aarch64-oe-linux-gcc (GCC) 11.4.0, GNU ld (GNU Binutils) 2.38.20220708) #1 SMP Fri Apr 12 10:45:53 UTC 2024
[    0.000000] Machine model: FriendlyElec NanoPi R5C
[    0.000000] earlycon: uart8250 at MMIO32 0x00000000fe660000 (options '')
[    0.000000] printk: bootconsole [uart8250] enabled
[    0.000000] OF: fdt: Reserved memory: failed to reserve memory for node 'drm-logo@0': base 0x0000000000000000, size 0 MiB
[    0.000000] OF: fdt: Reserved memory: failed to reserve memory for node 'drm-cubic-lut@0': base 0x0000000000000000, size 0 MiB
[    0.000000] Reserved memory: created CMA memory pool at 0x0000000010000000, size 8 MiB
[    0.000000] OF: reserved mem: initialized node linux,cma, compatible id shared-dma-pool
[    0.000000] Zone ranges:
[    0.000000]   DMA      [mem 0x0000000000200000-0x00000000ffffffff]
[    0.000000]   DMA32    empty
[    0.000000]   Normal   [mem 0x0000000100000000-0x00000001ffffffff]
[    0.000000] Movable zone start for each node
[    0.000000] Early memory node ranges
[    0.000000]   node   0: [mem 0x0000000000200000-0x00000000083fffff]
[    0.000000]   node   0: [mem 0x0000000009400000-0x00000000efffffff]
[    0.000000]   node   0: [mem 0x00000001f0000000-0x00000001ffffffff]
[    0.000000] Initmem setup node 0 [mem 0x0000000000200000-0x00000001ffffffff]
[    0.000000] On node 0, zone DMA: 512 pages in unavailable ranges
[    0.000000] On node 0, zone DMA: 4096 pages in unavailable ranges
[    0.000000] psci: probing for conduit method from DT.
[    0.000000] psci: PSCIv1.1 detected in firmware.
[    0.000000] psci: Using standard PSCI v0.2 function IDs
[    0.000000] psci: Trusted OS migration not required
[    0.000000] psci: SMC Calling Convention v1.2
[    0.000000] percpu: Embedded 26 pages/cpu s68536 r8192 d29768 u106496
[    0.000000] Detected VIPT I-cache on CPU0
[    0.000000] CPU features: detected: GIC system register CPU interface
[    0.000000] CPU features: detected: Virtualization Host Extensions
[    0.000000] CPU features: detected: Qualcomm erratum 1009, or ARM erratum 1286807, 2441009
[    0.000000] CPU features: detected: ARM errata 1165522, 1319367, or 1530923
[    0.000000] alternatives: applying boot alternatives
[    0.000000] Built 1 zonelists, mobility grouping on.  Total pages: 1027656
[    0.000000] Kernel command line: console=ttyFIQ0,1500000n8 earlycon=uart8250,mmio32,0xfe660000  root=PARTUUID=7049fe81-1c1f-4a85-8730-76cb1ef3c63f ro rootfstype=squashfs rootwait rootfs_partition=3 rootfs_volume=3 earlyprintk panic=15 cgroup_enable=cpuset cgroup_memory=1 cgroup_enable=memory coherent_pool=1m
[    0.000000] Unknown kernel command line parameters "earlyprintk rootfs_partition=3 rootfs_volume=3 cgroup_enable=memory cgroup_memory=1", will be passed to user space.
[    0.000000] Dentry cache hash table entries: 524288 (order: 10, 4194304 bytes, linear)
[    0.000000] Inode-cache hash table entries: 262144 (order: 9, 2097152 bytes, linear)
[    0.000000] mem auto-init: stack:off, heap alloc:off, heap free:off
[    0.000000] software IO TLB: area num 4.
[    0.000000] software IO TLB: mapped [mem 0x00000000ec000000-0x00000000f0000000] (64MB)
[    0.000000] Memory: 3988292K/4175872K available (15552K kernel code, 3338K rwdata, 6032K rodata, 6144K init, 567K bss, 179388K reserved, 8192K cma-reserved)
[    0.000000] SLUB: HWalign=64, Order=0-3, MinObjects=0, CPUs=4, Nodes=1
[    0.000000] ftrace: allocating 60789 entries in 238 pages
[    0.000000] ftrace: allocated 238 pages with 6 groups
[    0.000000] trace event string verifier disabled
[    0.000000] rcu: Hierarchical RCU implementation.
[    0.000000] rcu: RCU event tracing is enabled.
[    0.000000] rcu: RCU restricting CPUs from NR_CPUS=8 to nr_cpu_ids=4.
[    0.000000] Rude variant of Tasks RCU enabled.
[    0.000000] rcu: RCU calculated value of scheduler-enlistment delay is 30 jiffies.
[    0.000000] rcu: Adjusting geometry for rcu_fanout_leaf=16, nr_cpu_ids=4
[    0.000000] NR_IRQS: 64, nr_irqs: 64, preallocated irqs: 0
[    0.000000] GICv3: GIC: Using split EOI/Deactivate mode
[    0.000000] GICv3: 320 SPIs implemented
[    0.000000] GICv3: 0 Extended SPIs implemented
[    0.000000] Root IRQ handler: gic_handle_irq
[    0.000000] GICv3: GICv3 features: 16 PPIs
[    0.000000] GICv3: CPU0: found redistributor 0 region 0:0x00000000fd460000
[    0.000000] ITS [mem 0xfd440000-0xfd45ffff]
[    0.000000] ITS@0x00000000fd440000: allocated 8192 Devices @2400000 (indirect, esz 8, psz 64K, shr 0)
[    0.000000] ITS@0x00000000fd440000: allocated 32768 Interrupt Collections @2410000 (flat, esz 2, psz 64K, shr 0)
[    0.000000] ITS: using cache flushing for cmd queue
[    0.000000] GICv3: using LPI property table @0x0000000002420000
[    0.000000] GIC: using cache flushing for LPI property table
[    0.000000] GICv3: CPU0: using allocated LPI pending table @0x0000000002430000
[    0.000000] rcu: srcu_init: Setting srcu_struct sizes based on contention.
[    0.000000] arch_timer: cp15 timer(s) running at 24.00MHz (phys).
[    0.000000] clocksource: arch_sys_counter: mask: 0xffffffffffffff max_cycles: 0x588fe9dc0, max_idle_ns: 440795202592 ns
[    0.000001] sched_clock: 56 bits at 24MHz, resolution 41ns, wraps every 4398046511097ns
[    0.002831] Console: colour dummy device 80x25
[    0.003339] Calibrating delay loop (skipped), value calculated using timer frequency.. 48.00 BogoMIPS (lpj=80000)
[    0.004342] pid_max: default: 32768 minimum: 301
[    0.005042] Mount-cache hash table entries: 8192 (order: 4, 65536 bytes, linear)
[    0.005786] Mountpoint-cache hash table entries: 8192 (order: 4, 65536 bytes, linear)
[    0.008110] cacheinfo: Unable to detect cache hierarchy for CPU 0
[    0.010288] cblist_init_generic: Setting adjustable number of callback queues.
[    0.010994] cblist_init_generic: Setting shift to 2 and lim to 1.
[    0.012007] rcu: Hierarchical SRCU implementation.
[    0.012479] rcu: Max phase no-delay instances is 1000.
[    0.014354] Platform MSI: interrupt-controller@fd440000 domain created
[    0.015685] PCI/MSI: /interrupt-controller@fd400000/interrupt-controller@fd440000 domain created
[    0.017824] smp: Bringing up secondary CPUs ...
[    0.019473] Detected VIPT I-cache on CPU1
[    0.019603] cacheinfo: Unable to detect cache hierarchy for CPU 1
[    0.019624] GICv3: CPU1: found redistributor 100 region 0:0x00000000fd480000
[    0.019657] GICv3: CPU1: using allocated LPI pending table @0x0000000002440000
[    0.019732] CPU1: Booted secondary processor 0x0000000100 [0x412fd050]
[    0.021148] Detected VIPT I-cache on CPU2
[    0.021270] cacheinfo: Unable to detect cache hierarchy for CPU 2
[    0.021291] GICv3: CPU2: found redistributor 200 region 0:0x00000000fd4a0000
[    0.021321] GICv3: CPU2: using allocated LPI pending table @0x0000000002450000
[    0.021381] CPU2: Booted secondary processor 0x0000000200 [0x412fd050]
[    0.022679] Detected VIPT I-cache on CPU3
[    0.022793] cacheinfo: Unable to detect cache hierarchy for CPU 3
[    0.022815] GICv3: CPU3: found redistributor 300 region 0:0x00000000fd4c0000
[    0.022845] GICv3: CPU3: using allocated LPI pending table @0x0000000002460000
[    0.022901] CPU3: Booted secondary processor 0x0000000300 [0x412fd050]
[    0.023075] smp: Brought up 1 node, 4 CPUs
[    0.032435] SMP: Total of 4 processors activated.
[    0.032897] CPU features: detected: 32-bit EL0 Support
[    0.033396] CPU features: detected: Data cache clean to the PoU not required for I/D coherence
[    0.034227] CPU features: detected: Common not Private translations
[    0.034853] CPU features: detected: CRC32 instructions
[    0.035358] CPU features: detected: RCpc load-acquire (LDAPR)
[    0.035915] CPU features: detected: Privileged Access Never
[    0.036455] CPU features: detected: RAS Extension Support
[    0.036982] CPU features: detected: Speculative Store Bypassing Safe (SSBS)
[    0.037801] CPU: All CPU(s) started at EL2
[    0.038243] alternatives: applying system-wide alternatives
[    0.040718] devtmpfs: initialized
[    0.085804] Registered cp15_barrier emulation handler
[    0.086329] Registered setend emulation handler
[    0.087113] clocksource: jiffies: mask: 0xffffffff max_cycles: 0xffffffff, max_idle_ns: 6370867519511994 ns
[    0.088081] futex hash table entries: 1024 (order: 4, 65536 bytes, linear)
[    0.089239] pinctrl core: initialized pinctrl subsystem
[    0.091553] NET: Registered PF_NETLINK/PF_ROUTE protocol family
[    0.094856] DMA: preallocated 1024 KiB GFP_KERNEL pool for atomic allocations
[    0.096145] DMA: preallocated 1024 KiB GFP_KERNEL|GFP_DMA pool for atomic allocations
[    0.097485] DMA: preallocated 1024 KiB GFP_KERNEL|GFP_DMA32 pool for atomic allocations
[    0.103182] Registered FIQ tty driver
[    0.104293] thermal_sys: Registered thermal governor 'fair_share'
[    0.104309] thermal_sys: Registered thermal governor 'step_wise'
[    0.104903] thermal_sys: Registered thermal governor 'power_allocator'
[    0.105607] cpuidle: using governor menu
[    0.107388] hw-breakpoint: found 6 breakpoint and 4 watchpoint registers.
[    0.108293] ASID allocator initialised with 65536 entries
[    0.112752] ramoops: dmesg-00x20000@0x0000000000110000
[    0.113326] ramoops: console0x80000@0x0000000000130000
[    0.113908] ramoops: pmsg0x50000@0x00000000001b0000
[    0.115132] printk: console [ramoops-1] enabled
[    0.115582] pstore: Registered ramoops as persistent store backend
[    0.116187] ramoops: using 0xf0000@0x110000, ecc: 0
[    0.147041] platform fe0a0000.hdmi: Fixed dependency cycle(s) with /vop@fe040000/ports/port@0/endpoint@3
[    0.186259] rockchip-gpio fdd60000.gpio: probed /pinctrl/gpio@fdd60000
[    0.187916] rockchip-gpio fe740000.gpio: probed /pinctrl/gpio@fe740000
[    0.189496] rockchip-gpio fe750000.gpio: probed /pinctrl/gpio@fe750000
[    0.191160] rockchip-gpio fe760000.gpio: probed /pinctrl/gpio@fe760000
[    0.192760] rockchip-gpio fe770000.gpio: probed /pinctrl/gpio@fe770000
[    0.193641] rockchip-pinctrl pinctrl: probed pinctrl
[    0.230580] cryptd: max_cpu_qlen set to 1000
[    0.234175] fiq_debugger fiq_debugger.0: error -ENXIO: IRQ fiq not found
[    0.234883] fiq_debugger fiq_debugger.0: error -ENXIO: IRQ wakeup not found
[    0.235614] fiq_debugger_probe: could not install nmi irq handler
[    0.236361] printk: console [ttyFIQ0] enabled
[    0.236361] printk: console [ttyFIQ0] enabled
[    0.237187] printk: bootconsole [uart8250] disabled
[    0.237187] printk: bootconsole [uart8250] disabled
[    0.238032] Registered fiq debugger ttyFIQ0
[    0.244336] iommu: Default domain type: Translated 
[    0.244375] iommu: DMA domain TLB invalidation policy: strict mode 
[    0.245014] SCSI subsystem initialized
[    0.245433] usbcore: registered new interface driver usbfs
[    0.245541] usbcore: registered new interface driver hub
[    0.245671] usbcore: registered new device driver usb
[    0.245938] mc: Linux media interface: v0.10
[    0.246037] videodev: Linux video capture interface: v2.00
[    0.246230] pps_core: LinuxPPS API ver. 1 registered
[    0.246255] pps_core: Software ver. 5.3.6 - Copyright 2005-2007 Rodolfo Giometti <giometti@linux.it>
[    0.246300] PTP clock support registered
[    0.246798] arm-scmi firmware:scmi: Enabled polling mode TX channel - prot_id:16
[    0.247066] arm-scmi firmware:scmi: SCMI Notifications - Core Enabled.
[    0.247167] arm-scmi firmware:scmi: Malformed reply - real_sz:8  calc_sz:4  (loop_num_ret:3)
[    0.247197] arm-scmi firmware:scmi: SCMI Protocol v2.0 'rockchip:' Firmware version 0x0
[    0.249044] Advanced Linux Sound Architecture Driver Initialized.
[    0.249990] Bluetooth: Core ver 2.22
[    0.250065] NET: Registered PF_BLUETOOTH protocol family
[    0.250090] Bluetooth: HCI device and connection manager initialized
[    0.250117] Bluetooth: HCI socket layer initialized
[    0.250144] Bluetooth: L2CAP socket layer initialized
[    0.250193] Bluetooth: SCO socket layer initialized
[    1.086159] clocksource: Switched to clocksource arch_sys_counter
[    1.107391] NET: Registered PF_INET protocol family
[    1.107852] IP idents hash table entries: 65536 (order: 7, 524288 bytes, linear)
[    1.113463] tcp_listen_portaddr_hash hash table entries: 2048 (order: 4, 65536 bytes, linear)
[    1.113614] Table-perturb hash table entries: 65536 (order: 6, 262144 bytes, linear)
[    1.113768] TCP established hash table entries: 32768 (order: 6, 262144 bytes, linear)
[    1.114078] TCP bind hash table entries: 32768 (order: 9, 2097152 bytes, linear)
[    1.116369] TCP: Hash tables configured (established 32768 bind 32768)
[    1.116664] UDP hash table entries: 2048 (order: 5, 196608 bytes, linear)
[    1.116933] UDP-Lite hash table entries: 2048 (order: 5, 196608 bytes, linear)
[    1.117532] NET: Registered PF_UNIX/PF_LOCAL protocol family
[    1.118456] RPC: Registered named UNIX socket transport module.
[    1.118494] RPC: Registered udp transport module.
[    1.118511] RPC: Registered tcp transport module.
[    1.118527] RPC: Registered tcp NFSv4.1 backchannel transport module.
[    1.120277] PCI: CLS 0 bytes, default 64
[    1.123834] hw perfevents: enabled with armv8_cortex_a55 PMU driver, 7 counters available
[    1.205745] Initialise system trusted keyrings
[    1.206265] workingset: timestamp_bits=46 max_order=20 bucket_order=0
[    1.217759] squashfs: version 4.0 (2009/01/31) Phillip Lougher
[    1.219236] NFS: Registering the id_resolver key type
[    1.219309] Key type id_resolver registered
[    1.219332] Key type id_legacy registered
[    1.219406] ntfs: driver 2.1.32 [Flags: R/O].
[    1.219771] jffs2: version 2.2. (NAND) © 2001-2006 Red Hat, Inc.
[    1.220495] fuse: init (API version 7.37)
[    1.221161] SGI XFS with security attributes, no debug enabled
[    1.278139] NET: Registered PF_ALG protocol family
[    1.278201] Key type asymmetric registered
[    1.278222] Asymmetric key parser 'x509' registered
[    1.278357] Block layer SCSI generic (bsg) driver version 0.4 loaded (major 243)
[    1.278386] io scheduler mq-deadline registered
[    1.278408] io scheduler kyber registered
[    1.297247] rockchip-snps-pcie3-phy fe8c0000.phy: failed to find rockchip,pipe_grf regmap
[    1.301937] rk-pcie 3c0000000.pcie: invalid prsnt-gpios property in node
[    1.302076] rk-pcie 3c0000000.pcie: no vpcie3v3 regulator found
[    1.302782] rk-pcie 3c0400000.pcie: invalid prsnt-gpios property in node
[    1.302948] rk-pcie 3c0400000.pcie: no vpcie3v3 regulator found
[    1.303320] rk-pcie 3c0000000.pcie: host bridge /pcie@fe260000 ranges:
[    1.303399] rk-pcie 3c0000000.pcie:       IO 0x00f4100000..0x00f41fffff -> 0x00f4100000
[    1.303453] rk-pcie 3c0000000.pcie:      MEM 0x00f4200000..0x00f5ffffff -> 0x00f4200000
[    1.303493] rk-pcie 3c0000000.pcie:      MEM 0x0300000000..0x033fffffff -> 0x0300000000
[    1.303640] rk-pcie 3c0000000.pcie: iATU unroll: enabled
[    1.303667] rk-pcie 3c0000000.pcie: iATU regions: 8 ob, 8 ib, align 64K, limit 8G
[    1.303859] rk-pcie 3c0800000.pcie: invalid prsnt-gpios property in node
[    1.303961] rk-pcie 3c0800000.pcie: no vpcie3v3 regulator found
[    1.303976] mpp_service mpp-srv: unknown mpp version for missing VCS info
[    1.304008] mpp_service mpp-srv: probe start
[    1.309548] mpp_service mpp-srv: probe success
[    1.312255] snps pcie3phy FW update! size 8192
[    1.317892] dma-pl330 fe530000.dma-controller: Loaded driver for PL330 DMAC-241330
[    1.317959] dma-pl330 fe530000.dma-controller: DBUFF-128x8bytes Num_Chans-8 Num_Peri-32 Num_Events-16
[    1.322074] dma-pl330 fe550000.dma-controller: Loaded driver for PL330 DMAC-241330
[    1.322122] dma-pl330 fe550000.dma-controller: DBUFF-128x8bytes Num_Chans-8 Num_Peri-32 Num_Events-16
[    1.322578] rockchip-pvtm fde00000.pvtm: failed to retrieve pvtm_tz
[    1.322663] rockchip-pvtm fde00000.pvtm: pvtm@0 probed
[    1.322906] rockchip-pvtm fde80000.pvtm: failed to retrieve pvtm_tz
[    1.322986] rockchip-pvtm fde80000.pvtm: pvtm@1 probed
[    1.323153] rockchip-pvtm fde90000.pvtm: failed to retrieve pvtm_tz
[    1.323267] rockchip-pvtm fde90000.pvtm: pvtm@2 probed
[    1.323969] rockchip-system-monitor rockchip-system-monitor: system monitor probe
[    1.325041] arm-scmi firmware:scmi: Failed. SCMI protocol 22 not active.
[    1.325493] Serial: 8250/16550 driver, 10 ports, IRQ sharing disabled
[    1.326927] rk-pcie 3c0800000.pcie: host bridge /pcie@fe280000 ranges:
[    1.327019] rk-pcie 3c0400000.pcie: host bridge /pcie@fe270000 ranges:
[    1.327023] rk-pcie 3c0800000.pcie:       IO 0x00f0100000..0x00f01fffff -> 0x00f0100000
[    1.327089] rk-pcie 3c0800000.pcie:      MEM 0x00f0200000..0x00f1ffffff -> 0x00f0200000
[    1.327161] rk-pcie 3c0800000.pcie:      MEM 0x0380000000..0x03bfffffff -> 0x0380000000
[    1.327184] rk-pcie 3c0400000.pcie:       IO 0x00f2100000..0x00f21fffff -> 0x00f2100000
[    1.327280] rk-pcie 3c0400000.pcie:      MEM 0x00f2200000..0x00f3ffffff -> 0x00f2200000
[    1.327304] rk-pcie 3c0800000.pcie: iATU unroll: enabled
[    1.327330] rk-pcie 3c0800000.pcie: iATU regions: 8 ob, 8 ib, align 64K, limit 8G
[    1.327331] rk-pcie 3c0400000.pcie:      MEM 0x0340000000..0x037fffffff -> 0x0340000000
[    1.327430] rk-pcie 3c0400000.pcie: iATU unroll: enabled
[    1.327456] rk-pcie 3c0400000.pcie: iATU regions: 8 ob, 8 ib, align 64K, limit 8G
[    1.330169] random: crng init done
[    1.339330] rockchip-vop2 fe040000.vop: Adding to iommu group 7
[    1.355545] rockchip-vop2 fe040000.vop: [drm:vop2_bind] vp0 assign plane mask: 0xf, primary plane phy id: 2
[    1.355630] rockchip-vop2 fe040000.vop: [drm:vop2_bind] vp1 assign plane mask: 0x30, primary plane phy id: 4
[    1.355663] rockchip-vop2 fe040000.vop: [drm:vop2_bind] vp2 assign plane mask: 0x0, primary plane phy id: -1
[    1.355923] rockchip-vop2 fe040000.vop: [drm:vop2_bind] Esmart1-win0 as cursor plane for vp0
[    1.356239] rockchip-vop2 fe040000.vop: [drm:vop2_bind] VP2 plane_mask is zero, so ignore register crtc
[    1.357678] rockchip-vop2 fe040000.vop: bin=0
[    1.357804] rockchip-vop2 fe040000.vop: Failed to get leakage
[    1.357981] rockchip-vop2 fe040000.vop: Failed to get reg
[    1.358166] rockchip-vop2 fe040000.vop: error -ENODEV: _opp_set_regulators: no regulator (vop) found
[    1.358246] rockchip-vop2 fe040000.vop: failed to set opp config
[    1.358272] rockchip-vop2 fe040000.vop: failed to init opp info
[    1.358293] rockchip-vop2 fe040000.vop: failed to init_opp_table
[    1.358324] rockchip-drm display-subsystem: bound fe040000.vop (ops 0xffffffc0090303c8)
[    1.358909] dwhdmi-rockchip fe0a0000.hdmi: Detected HDMI TX controller v2.11a with HDCP (DWC HDMI 2.0 TX PHY)
[    1.360037] dwhdmi-rockchip fe0a0000.hdmi: registered DesignWare HDMI I2C bus driver
[    1.360412] dwhdmi-rockchip fe0a0000.hdmi: error -ENXIO: IRQ index 1 not found
[    1.361129] rockchip-drm display-subsystem: bound fe0a0000.hdmi (ops 0xffffffc009043e90)
[    1.361987] rockchip-drm display-subsystem: failed to parse loader memory
[    1.363531] [drm] Initialized rockchip 4.0.0 20140818 for display-subsystem on minor 0
[    1.363777] rockchip-drm display-subsystem: [drm] Cannot find any crtc or sizes
[    1.364108] rockchip-drm display-subsystem: [drm] Cannot find any crtc or sizes
[    1.364728] no ATF memory for init
[    1.372105] SPI driver panel-simple-spi has no spi_device_id for simple-panel-spi
[    1.374841] input: hdmi_cec_key as /devices/platform/fe0a0000.hdmi/dw-hdmi-cec.1.auto/input/input0
[    1.376559] cacheinfo: Unable to detect cache hierarchy for CPU 0
[    1.377909] brd: module loaded
[    1.387159] loop: module loaded
[    1.388080] zram: Added device: zram0
[    1.388627] lkdtm: No crash points registered, enable through debugfs
[    1.391282] SPI driver spidev has no spi_device_id for rockchip,spidev
[    1.395440] PPP generic driver version 2.4.2
[    1.396174] PPP MPPE Compression module registered
[    1.396213] NET: Registered PF_PPPOX protocol family
[    1.396603] usbcore: registered new interface driver cdc_ether
[    1.417668] phy phy-fe8b0000.usb2-phy.3: illegal mode
[    1.418863] xhci-hcd xhci-hcd.4.auto: xHCI Host Controller
[    1.419277] xhci-hcd xhci-hcd.4.auto: new USB bus registered, assigned bus number 1
[    1.419562] xhci-hcd xhci-hcd.4.auto: hcc params 0x0220fe64 hci version 0x110 quirks 0x0000800002010010
[    1.419577] ehci-platform fd880000.usb: EHCI Host Controller
[    1.419578] ehci-platform fd800000.usb: EHCI Host Controller
[    1.419662] phy phy-fe8b0000.usb2-phy.3: illegal mode
[    1.419697] ohci-platform fd840000.usb: Generic Platform OHCI controller
[    1.419697] xhci-hcd xhci-hcd.4.auto: irq 48, io mem 0xfcc00000
[    1.419976] xhci-hcd xhci-hcd.4.auto: xHCI Host Controller
[    1.419981] ehci-platform fd800000.usb: new USB bus registered, assigned bus number 2
[    1.420040] ehci-platform fd880000.usb: new USB bus registered, assigned bus number 3
[    1.420043] ohci-platform fd840000.usb: new USB bus registered, assigned bus number 4
[    1.420207] ohci-platform fd8c0000.usb: Generic Platform OHCI controller
[    1.420232] ehci-platform fd800000.usb: irq 50, io mem 0xfd800000
[    1.420261] ohci-platform fd840000.usb: irq 52, io mem 0xfd840000
[    1.420305] ehci-platform fd880000.usb: irq 51, io mem 0xfd880000
[    1.420457] xhci-hcd xhci-hcd.4.auto: new USB bus registered, assigned bus number 5
[    1.420504] xhci-hcd xhci-hcd.4.auto: Host supports USB 3.0 SuperSpeed
[    1.420725] ohci-platform fd8c0000.usb: new USB bus registered, assigned bus number 6
[    1.420913] ohci-platform fd8c0000.usb: irq 53, io mem 0xfd8c0000
[    1.421165] usb usb1: New USB device found, idVendor=1d6b, idProduct=0002, bcdDevice= 6.01
[    1.421199] usb usb1: New USB device strings: Mfr=3, Product=2, SerialNumber=1
[    1.421226] usb usb1: Product: xHCI Host Controller
[    1.421246] usb usb1: Manufacturer: Linux 6.1.57-tano-rk-standard-gea9e2a9344-tano0.2.1.20.1.0 xhci-hcd
[    1.421268] usb usb1: SerialNumber: xhci-hcd.4.auto
[    1.422109] hub 1-0:1.0: USB hub found
[    1.422207] hub 1-0:1.0: 1 port detected
[    1.423124] usb usb5: We don't know the algorithms for LPM for this host, disabling LPM.
[    1.423420] usb usb5: New USB device found, idVendor=1d6b, idProduct=0003, bcdDevice= 6.01
[    1.423456] usb usb5: New USB device strings: Mfr=3, Product=2, SerialNumber=1
[    1.423483] usb usb5: Product: xHCI Host Controller
[    1.423505] usb usb5: Manufacturer: Linux 6.1.57-tano-rk-standard-gea9e2a9344-tano0.2.1.20.1.0 xhci-hcd
[    1.423526] usb usb5: SerialNumber: xhci-hcd.4.auto
[    1.424346] hub 5-0:1.0: USB hub found
[    1.424431] hub 5-0:1.0: 1 port detected
[    1.425419] xhci-hcd xhci-hcd.5.auto: xHCI Host Controller
[    1.425778] xhci-hcd xhci-hcd.5.auto: new USB bus registered, assigned bus number 7
[    1.426004] xhci-hcd xhci-hcd.5.auto: hcc params 0x0220fe64 hci version 0x110 quirks 0x0000800002010010
[    1.426122] xhci-hcd xhci-hcd.5.auto: irq 49, io mem 0xfd000000
[    1.426455] xhci-hcd xhci-hcd.5.auto: xHCI Host Controller
[    1.426766] xhci-hcd xhci-hcd.5.auto: new USB bus registered, assigned bus number 8
[    1.426812] xhci-hcd xhci-hcd.5.auto: Host supports USB 3.0 SuperSpeed
[    1.427173] usb usb7: New USB device found, idVendor=1d6b, idProduct=0002, bcdDevice= 6.01
[    1.427207] usb usb7: New USB device strings: Mfr=3, Product=2, SerialNumber=1
[    1.427233] usb usb7: Product: xHCI Host Controller
[    1.427255] usb usb7: Manufacturer: Linux 6.1.57-tano-rk-standard-gea9e2a9344-tano0.2.1.20.1.0 xhci-hcd
[    1.427277] usb usb7: SerialNumber: xhci-hcd.5.auto
[    1.428088] hub 7-0:1.0: USB hub found
[    1.428179] hub 7-0:1.0: 1 port detected
[    1.428954] usb usb8: We don't know the algorithms for LPM for this host, disabling LPM.
[    1.429262] usb usb8: New USB device found, idVendor=1d6b, idProduct=0003, bcdDevice= 6.01
[    1.429299] usb usb8: New USB device strings: Mfr=3, Product=2, SerialNumber=1
[    1.429324] usb usb8: Product: xHCI Host Controller
[    1.429347] usb usb8: Manufacturer: Linux 6.1.57-tano-rk-standard-gea9e2a9344-tano0.2.1.20.1.0 xhci-hcd
[    1.429369] usb usb8: SerialNumber: xhci-hcd.5.auto
[    1.430231] hub 8-0:1.0: USB hub found
[    1.430331] hub 8-0:1.0: 1 port detected
[    1.431209] usbcore: registered new interface driver cdc_acm
[    1.431236] cdc_acm: USB Abstract Control Model driver for USB modems and ISDN adapters
[    1.431672] usbcore: registered new interface driver uas
[    1.431884] usbcore: registered new interface driver usb-storage
[    1.432079] usbcore: registered new interface driver usbserial_generic
[    1.432142] usbserial: USB Serial support registered for generic
[    1.432239] usbcore: registered new interface driver ftdi_sio
[    1.432299] usbserial: USB Serial support registered for FTDI USB Serial Device
[    1.432571] usbcore: registered new interface driver keyspan
[    1.432631] usbserial: USB Serial support registered for Keyspan - (without firmware)
[    1.432687] usbserial: USB Serial support registered for Keyspan 1 port adapter
[    1.432754] usbserial: USB Serial support registered for Keyspan 2 port adapter
[    1.432864] usbserial: USB Serial support registered for Keyspan 4 port adapter
[    1.432903] ehci-platform fd800000.usb: USB 2.0 started, EHCI 1.00
[    1.432977] usbcore: registered new interface driver oti6858
[    1.433042] usbserial: USB Serial support registered for oti6858
[    1.433132] usbcore: registered new interface driver qcserial
[    1.433191] usbserial: USB Serial support registered for Qualcomm USB modem
[    1.433681] usb usb2: New USB device found, idVendor=1d6b, idProduct=0002, bcdDevice= 6.01
[    1.433718] usb usb2: New USB device strings: Mfr=3, Product=2, SerialNumber=1
[    1.433743] usb usb2: Product: EHCI Host Controller
[    1.433763] usb usb2: Manufacturer: Linux 6.1.57-tano-rk-standard-gea9e2a9344-tano0.2.1.20.1.0 ehci_hcd
[    1.433784] usb usb2: SerialNumber: fd800000.usb
[    1.434673] hub 2-0:1.0: USB hub found
[    1.434804] hub 2-0:1.0: 1 port detected
[    1.436628] i2c_dev: i2c /dev entries driver
[    1.439348] fan53555-regulator 0-001c: FAN53555 Option[12] Rev[15] Detected!
[    1.442281] i2c 0-0020: Fixed dependency cycle(s) with /i2c@fdd40000/pmic@20/pinctrl_rk8xx/rk817_slppin_rst
[    1.442340] i2c 0-0020: Fixed dependency cycle(s) with /i2c@fdd40000/pmic@20/pinctrl_rk8xx/rk817_slppin_pwrdn
[    1.442388] i2c 0-0020: Fixed dependency cycle(s) with /i2c@fdd40000/pmic@20/pinctrl_rk8xx/rk817_slppin_slp
[    1.443878] rk808 0-0020: chip id: 0x8090
[    1.443973] rk808 0-0020: No cache defaults, reading back from HW
[    1.446208] ehci-platform fd880000.usb: USB 2.0 started, EHCI 1.00
[    1.446948] usb usb3: New USB device found, idVendor=1d6b, idProduct=0002, bcdDevice= 6.01
[    1.446986] usb usb3: New USB device strings: Mfr=3, Product=2, SerialNumber=1
[    1.447011] usb usb3: Product: EHCI Host Controller
[    1.447032] usb usb3: Manufacturer: Linux 6.1.57-tano-rk-standard-gea9e2a9344-tano0.2.1.20.1.0 ehci_hcd
[    1.447055] usb usb3: SerialNumber: fd880000.usb
[    1.447968] hub 3-0:1.0: USB hub found
[    1.448098] hub 3-0:1.0: 1 port detected
[    1.450309] rk808 0-0020: source: on=0x40, off=0x00
[    1.450352] rk808 0-0020: support dcdc3 fb mode:-22, 167032496
[    1.450381] rk808 0-0020: support pmic reset mode:0,0
[    1.456566] rk808-regulator rk808-regulator: there is no dvs0 gpio
[    1.456649] rk808-regulator rk808-regulator: there is no dvs1 gpio
[    1.474457] rk817-battery: Failed to locate of_node [id: -1]
[    1.474686] rk817-battery rk817-battery: Failed to find matching dt id
[    1.474891] rk817-charger: Failed to locate of_node [id: -1]
[    1.475092] rk817-charger rk817-charger: Failed to find matching dt id
[    1.477435] input: rk805 pwrkey as /devices/platform/fdd40000.i2c/i2c-0/0-0020/rk805-pwrkey/input/input1
[    1.480569] usb usb6: New USB device found, idVendor=1d6b, idProduct=0001, bcdDevice= 6.01
[    1.480627] usb usb6: New USB device strings: Mfr=3, Product=2, SerialNumber=1
[    1.480652] usb usb6: Product: Generic Platform OHCI controller
[    1.480672] usb usb6: Manufacturer: Linux 6.1.57-tano-rk-standard-gea9e2a9344-tano0.2.1.20.1.0 ohci_hcd
[    1.480693] usb usb6: SerialNumber: fd8c0000.usb
[    1.481090] rk808-rtc rk808-rtc: registered as rtc0
[    1.481550] hub 6-0:1.0: USB hub found
[    1.481643] hub 6-0:1.0: 1 port detected
[    1.481727] rk808-rtc rk808-rtc: setting system clock to 2017-08-04T09:00:07 UTC (1501837207)
[    1.482861] usb usb4: New USB device found, idVendor=1d6b, idProduct=0001, bcdDevice= 6.01
[    1.482908] usb usb4: New USB device strings: Mfr=3, Product=2, SerialNumber=1
[    1.482933] usb usb4: Product: Generic Platform OHCI controller
[    1.482953] usb usb4: Manufacturer: Linux 6.1.57-tano-rk-standard-gea9e2a9344-tano0.2.1.20.1.0 ohci_hcd
[    1.482975] usb usb4: SerialNumber: fd840000.usb
[    1.484020] hub 4-0:1.0: USB hub found
[    1.484122] hub 4-0:1.0: 1 port detected
[    1.488591] rtc-hym8563 5-0051: rtc information is invalid
[    1.492057] rtc-hym8563 5-0051: registered as rtc1
[    1.495432] usbcore: registered new interface driver uvcvideo
[    1.498950] Bluetooth: HCI UART driver ver 2.3
[    1.499000] Bluetooth: HCI UART protocol H4 registered
[    1.499021] Bluetooth: HCI UART protocol ATH3K registered
[    1.499160] usbcore: registered new interface driver bfusb
[    1.499875] cpu cpu0: Failed to get specification_serial_number
[    1.499942] cpu cpu0: Failed to get leakage
[    1.500770] cpu cpu0: soc version=0, speed=0
[    1.503442] cpu cpu0: avs=0
[    1.503769] cpu cpu0: l=0 h=2147483647 hyst=5000 l_limit=1416000000 h_limit=0 h_table=0
[    1.505561] cpu cpu0: EM: created perf domain
[    1.507256] sdhci: Secure Digital Host Controller Interface driver
[    1.507284] sdhci: Copyright(c) Pierre Ossman
[    1.507296] Synopsys Designware Multimedia Card Interface Driver
[    1.508089] sdhci-pltfm: SDHCI platform and OF driver helper
[    1.508751] dwmmc_rockchip fe2b0000.mmc: No normal pinctrl state
[    1.508778] dwmmc_rockchip fe2b0000.mmc: No idle pinctrl state
[    1.509146] dwmmc_rockchip fe2b0000.mmc: IDMAC supports 32-bit address mode.
[    1.509199] dwmmc_rockchip fe2b0000.mmc: Using internal DMA controller.
[    1.509220] dwmmc_rockchip fe2b0000.mmc: Version ID is 270a
[    1.509293] dwmmc_rockchip fe2b0000.mmc: DW MMC controller at irq 83,32 bit host data width,256 deep fifo
[    1.510658] rk-pcie 3c0000000.pcie: PCIe Linking... LTSSM is 0x3
[    1.511634] ledtrig-cpu: registered to indicate activity on CPUs
[    1.511707] arm-scmi firmware:scmi: Failed. SCMI protocol 17 not active.
[    1.511799] SMCCC: SOC_ID: ARCH_SOC_ID not implemented, skipping ....
[    1.512570] rk-crypto fe380000.crypto: invalid resource
[    1.513745] rk-crypto fe380000.crypto: CRYPTO V2.0.0.0 Accelerator successfully registered
[    1.514111] hid: raw HID events driver (C) Jiri Kosina
[    1.514602] usbcore: registered new interface driver usbhid
[    1.514622] usbhid: USB HID core driver
[    1.515270] rockchip,bus bus-npu: bin=0
[    1.515312] rockchip,bus bus-npu: Failed to get leakage
[    1.516654] rockchip,bus bus-npu: avs=0
[    1.520554] optee: probing for conduit method.
[    1.520606] optee: revision 3.6 (0b06ae94)
[    1.521115] optee: initialized driver
[    1.521192] mmc_host mmc1: Bus speed (slot 0) = 375000Hz (slot req 400000Hz, actual 375000HZ div = 0)
[    1.522149] usbcore: registered new interface driver snd-usb-audio
[    1.524678] rk817-codec rk817-codec: DMA mask not set
[    1.531165] NET: Registered PF_LLC protocol family
[    1.531217] u32 classifier
[    1.531227]     input device check on
[    1.531236]     Actions configured
[    1.531344] Initializing XFRM netlink socket
[    1.531766] NET: Registered PF_INET6 protocol family
[    1.532737] Segment Routing with IPv6
[    1.532780] In-situ OAM (IOAM) with IPv6
[    1.532898] NET: Registered PF_PACKET protocol family
[    1.532924] NET: Registered PF_KEY protocol family
[    1.533009] Bridge firewalling registered
[    1.533196] Bluetooth: RFCOMM socket layer initialized
[    1.533226] Bluetooth: RFCOMM ver 1.11
[    1.533253] Bluetooth: HIDP (Human Interface Emulation) ver 1.2
[    1.533272] Bluetooth: HIDP socket layer initialized
[    1.533338] l2tp_core: L2TP core driver, V2.0
[    1.533363] l2tp_ppp: PPPoL2TP kernel driver, V2.0
[    1.533374] l2tp_netlink: L2TP netlink interface
[    1.533427] 8021q: 802.1Q VLAN Support v1.8
[    1.533457] [BT_RFKILL]: Enter rfkill_rk_init
[    1.533469] [WLAN_RFKILL]: Enter rfkill_wlan_init
[    1.534244] Key type dns_resolver registered
[    1.535435] Loading compiled-in X.509 certificates
[    1.536211] rk-pcie 3c0000000.pcie: PCIe Linking... LTSSM is 0x3
[    1.537323] pstore: Using crash dump compression: deflate
[    1.539873] mmc0: SDHCI controller on fe310000.mmc [fe310000.mmc] using ADMA
[    1.550737] rga2: Driver loaded successfully ver:3.2.63318
[    1.551101] rga2: Module initialized.
[    1.562880] rk-pcie 3c0000000.pcie: PCIe Linking... LTSSM is 0x3
[    1.582103] rockchip-iodomain fdc20000.syscon:io-domains: pmuio2(3300000 uV) supplied by vcc3v3_pmu
[    1.582307] rockchip-iodomain fdc20000.syscon:io-domains: vccio1(3300000 uV) supplied by vccio_acodec
[    1.582495] rockchip-iodomain fdc20000.syscon:io-domains: vccio3(3300000 uV) supplied by vccio_sd
[    1.582661] rockchip-iodomain fdc20000.syscon:io-domains: vccio4(1800000 uV) supplied by vcc_1v8
[    1.582863] rockchip-iodomain fdc20000.syscon:io-domains: vccio5(3300000 uV) supplied by vcc_3v3
[    1.582952] rockchip-iodomain fdc20000.syscon:io-domains: vccio6(1800000 uV) supplied by vcc_1v8
[    1.583043] rockchip-iodomain fdc20000.syscon:io-domains: vccio7(3300000 uV) supplied by vcc_3v3
[    1.583473] mpp_rkvenc fdf40000.rkvenc: Adding to iommu group 5
[    1.583742] mpp_rkvenc fdf40000.rkvenc: probing start
[    1.584266] mpp_rkvenc fdf40000.rkvenc: bin=0
[    1.584302] mpp_rkvenc fdf40000.rkvenc: Failed to get leakage
[    1.584454] debugfs: Directory 'fdf40000.rkvenc-venc' with parent 'vdd_logic' already present!
[    1.584712] mpp_rkvenc fdf40000.rkvenc: avs=0
[    1.584935] mpp_rkvenc fdf40000.rkvenc: l=-2147483648 h=2147483647 hyst=0 l_limit=0 h_limit=0 h_table=0
[    1.585563] mpp_rkvenc fdf40000.rkvenc: probing finish
[    1.585948] mpp_vdpu2 fdea0400.vdpu: Adding to iommu group 1
[    1.586186] mpp_vdpu2 fdea0400.vdpu: probe device
[    1.587548] mpp_vdpu2 fdea0400.vdpu: probing finish
[    1.587930] mpp_vepu2 fdee0000.vepu: Adding to iommu group 3
[    1.588131] mpp_vepu2 fdee0000.vepu: probing start
[    1.588659] mpp_vepu2 fdee0000.vepu: probing finish
[    1.589093] mpp-iep2 fdef0000.iep: Adding to iommu group 4
[    1.589292] mpp-iep2 fdef0000.iep: probe device
[    1.589511] rk-pcie 3c0400000.pcie: PCIe Link up, LTSSM is 0x130011
[    1.589517] rk-pcie 3c0800000.pcie: PCIe Link up, LTSSM is 0x130011
[    1.589520] rk-pcie 3c0000000.pcie: PCIe Linking... LTSSM is 0x3
[    1.589529] rk-pcie 3c0800000.pcie: PCIe Gen.2 x1 link up
[    1.589534] rk-pcie 3c0400000.pcie: PCIe Gen.2 x1 link up
[    1.589674] mpp-iep2 fdef0000.iep: allocate roi buffer failed
[    1.589711] rk-pcie 3c0400000.pcie: PCI host bridge to bus 0001:10
[    1.589714] rk-pcie 3c0800000.pcie: PCI host bridge to bus 0002:20
[    1.589727] pci_bus 0002:20: root bus resource [bus 20-2f]
[    1.589735] pci_bus 0001:10: root bus resource [bus 10-1f]
[    1.589746] pci_bus 0002:20: root bus resource [io  0x100000-0x1fffff] (bus address [0xf0100000-0xf01fffff])
[    1.589753] pci_bus 0001:10: root bus resource [io  0x200000-0x2fffff] (bus address [0xf2100000-0xf21fffff])
[    1.589762] pci_bus 0002:20: root bus resource [mem 0xf0200000-0xf1ffffff]
[    1.589768] pci_bus 0001:10: root bus resource [mem 0xf2200000-0xf3ffffff]
[    1.589777] pci_bus 0002:20: root bus resource [mem 0x380000000-0x3bfffffff]
[    1.589782] pci_bus 0001:10: root bus resource [mem 0x340000000-0x37fffffff]
[    1.589830] pci 0002:20:00.0: [1d87:3566] type 01 class 0x060400
[    1.589830] pci 0001:10:00.0: [1d87:3566] type 01 class 0x060400
[    1.589861] pci 0001:10:00.0: reg 0x38: [mem 0x00000000-0x0000ffff pref]
[    1.589863] pci 0002:20:00.0: reg 0x10: [mem 0x00000000-0x3fffffff]
[    1.589887] pci 0002:20:00.0: reg 0x14: [mem 0x00000000-0x3fffffff]
[    1.589906] pci 0002:20:00.0: reg 0x38: [mem 0x00000000-0x0000ffff pref]
[    1.589956] pci 0001:10:00.0: supports D1 D2
[    1.589970] pci 0001:10:00.0: PME# supported from D0 D1 D3hot
[    1.589988] mpp-iep2 fdef0000.iep: probing finish
[    1.590016] pci 0002:20:00.0: supports D1 D2
[    1.590031] pci 0002:20:00.0: PME# supported from D0 D1 D3hot
[    1.592053] mpp_jpgdec fded0000.jpegd: Adding to iommu group 2
[    1.601638] mpp_jpgdec fded0000.jpegd: probe device
[    1.607458] pci 0002:20:00.0: Primary bus is hard wired to 0
[    1.607498] pci 0002:20:00.0: bridge configuration invalid ([bus 01-ff]), reconfiguring
[    1.607706] pci 0001:10:00.0: Primary bus is hard wired to 0
[    1.607733] pci 0001:10:00.0: bridge configuration invalid ([bus 01-ff]), reconfiguring
[    1.607958] pci 0002:21:00.0: [10ec:8125] type 00 class 0x020000
[    1.608023] pci 0001:11:00.0: [10ec:8125] type 00 class 0x020000
[    1.608114] pci 0002:21:00.0: reg 0x10: [io  0x0000-0x00ff]
[    1.608116] pci 0001:11:00.0: reg 0x10: [io  0x0000-0x00ff]
[    1.608245] pci 0001:11:00.0: reg 0x18: [mem 0x00000000-0x0000ffff 64bit]
[    1.608285] pci 0002:21:00.0: reg 0x18: [mem 0x00000000-0x0000ffff 64bit]
[    1.608325] pci 0001:11:00.0: reg 0x20: [mem 0x00000000-0x00003fff 64bit]
[    1.608354] mpp_jpgdec fded0000.jpegd: probing finish
[    1.608399] pci 0002:21:00.0: reg 0x20: [mem 0x00000000-0x00003fff 64bit]
[    1.608840] mpp_rkvdec2 fdf80200.rkvdec: Adding to iommu group 6
[    1.609080] pci 0001:11:00.0: supports D1 D2
[    1.609093] pci 0001:11:00.0: PME# supported from D0 D1 D2 D3hot D3cold
[    1.609150] pci 0002:21:00.0: supports D1 D2
[    1.609154] mpp_rkvdec2 fdf80200.rkvdec: rkvdec, probing start
[    1.609168] pci 0002:21:00.0: PME# supported from D0 D1 D2 D3hot D3cold
[    1.609531] mpp_rkvdec2 fdf80200.rkvdec: shared_niu_a is not found!
[    1.609546] rkvdec2_init:1197: No niu aclk reset resource define
[    1.609558] mpp_rkvdec2 fdf80200.rkvdec: shared_niu_h is not found!
[    1.609567] rkvdec2_init:1200: No niu hclk reset resource define
[    1.609799] mpp_rkvdec2 fdf80200.rkvdec: bin=0
[    1.609832] mpp_rkvdec2 fdf80200.rkvdec: Failed to get leakage
[    1.609964] debugfs: Directory 'fdf80200.rkvdec-vdec' with parent 'vdd_logic' already present!
[    1.610200] mpp_rkvdec2 fdf80200.rkvdec: avs=0
[    1.610385] mpp_rkvdec2 fdf80200.rkvdec: l=-2147483648 h=2147483647 hyst=0 l_limit=0 h_limit=0 h_table=0
[    1.610545] mpp_rkvdec2 fdf80200.rkvdec: sram_start 0x00000000fdcc0000
[    1.610559] mpp_rkvdec2 fdf80200.rkvdec: rcb_iova 0x0000000010000000
[    1.610570] mpp_rkvdec2 fdf80200.rkvdec: sram_size 45056
[    1.610579] mpp_rkvdec2 fdf80200.rkvdec: rcb_size 65536
[    1.610589] mpp_rkvdec2 fdf80200.rkvdec: min_width 512
[    1.610654] mpp_rkvdec2 fdf80200.rkvdec: link mode probe finish
[    1.610730] mpp_rkvdec2 fdf80200.rkvdec: probing finish
[    1.610742] mpp_rkvdec2 fdf80200.rkvdec: probing finish
[    1.611614] mali fde60000.gpu: Kernel DDK version g21p0-01eac0
[    1.611864] mali fde60000.gpu: GPU metrics tracepoint support enabled
[    1.612218] mali fde60000.gpu: Failed to get specification_serial_number
[    1.612248] mali fde60000.gpu: Failed to get leakage
[    1.612341] mali fde60000.gpu: soc version=0, speed=0
[    1.612496] debugfs: Directory 'fde60000.gpu-mali' with parent 'vdd_gpu' already present!
[    1.612739] debugfs: File 'Capture' in directory 'dapm' already present!
[    1.613256] mali fde60000.gpu: avs=0
[    1.613287] W : [File] : drivers/gpu/arm/bifrost/platform/rk/mali_kbase_config_rk.c; [Line] : 144; [Func] : kbase_platform_rk_init(); power-off-delay-ms not available.
[    1.613565] mali fde60000.gpu: Register LUT 00070200 initialized for GPU arch 0x00070400
[    1.613602] mali fde60000.gpu: GPU identified as 0x2 arch 7.4.0 r1p0 status 0
[    1.613784] mali fde60000.gpu: No priority control manager is configured
[    1.613798] mali fde60000.gpu: Large page support was disabled at compile-time!
[    1.613921] mali fde60000.gpu: No memory group manager is configured
[    1.615168] mali fde60000.gpu: l=0 h=2147483647 hyst=5000 l_limit=700000000 h_limit=0 h_table=0
[    1.615438] input: gpio-keys as /devices/platform/gpio-keys/input/input2
[    1.615730] mali fde60000.gpu: Couldn't find power_model DT node matching 'arm,mali-simple-power-model'
[    1.615757] mali fde60000.gpu: Error -22, no DT entry: mali-simple-power-model.static-coefficient = 1*[0]
[    1.616000] mali fde60000.gpu: Error -22, no DT entry: mali-simple-power-model.dynamic-coefficient = 1*[0]
[    1.616250] rk-pcie 3c0000000.pcie: PCIe Linking... LTSSM is 0x3
[    1.616264] mali fde60000.gpu: Error -22, no DT entry: mali-simple-power-model.ts = 4*[0]
[    1.616945] mali fde60000.gpu: Error -22, no DT entry: mali-simple-power-model.thermal-zone = ''
[    1.617617] cfg80211: Loading compiled-in X.509 certificates for regulatory database
[    1.618566] mmc_host mmc1: Bus speed (slot 0) = 50000000Hz (slot req 100000000Hz, actual 50000000HZ div = 0)
[    1.619337] mali fde60000.gpu: Using configured power model mali-g52_r1-power-model, and fallback mali-simple-power-model
[    1.619632] pci_bus 0001:11: busn_res: [bus 11-1f] end is updated to 11
[    1.619683] pci 0001:10:00.0: BAR 8: assigned [mem 0xf2200000-0xf22fffff]
[    1.619699] pci 0001:10:00.0: BAR 6: assigned [mem 0xf2300000-0xf230ffff pref]
[    1.619711] pci 0001:10:00.0: BAR 7: assigned [io  0x200000-0x200fff]
[    1.619727] pci 0001:11:00.0: BAR 2: assigned [mem 0xf2200000-0xf220ffff 64bit]
[    1.619775] pci 0001:11:00.0: BAR 4: assigned [mem 0xf2210000-0xf2213fff 64bit]
[    1.619818] pci 0001:11:00.0: BAR 0: assigned [io  0x200000-0x2000ff]
[    1.619842] pci 0001:10:00.0: PCI bridge to [bus 11]
[    1.619853] pci 0001:10:00.0:   bridge window [io  0x200000-0x200fff]
[    1.619865] pci 0001:10:00.0:   bridge window [mem 0xf2200000-0xf22fffff]
[    1.619963] cfg80211: Loaded X.509 cert 'sforshee: 00b28ddf47aef9cea7'
[    1.620674] platform regulatory.0: Direct firmware load for regulatory.db failed with error -2
[    1.620708] cfg80211: failed to load regulatory.db
[    1.620775] mali fde60000.gpu: * MALI kbase_mmap_min_addr compiled to CONFIG_DEFAULT_MMAP_MIN_ADDR, no runtime update possible! *
[    1.620792] mali fde60000.gpu: Probed as mali0
[    1.621111] rockchip-pm rockchip-suspend: not set pwm-regulator-config
[    1.621586] rockchip-suspend not set sleep-mode-config for mem-lite
[    1.621598] rockchip-suspend not set wakeup-config for mem-lite
[    1.621608] rockchip-suspend not set sleep-mode-config for mem-ultra
[    1.621615] rockchip-suspend not set wakeup-config for mem-ultra
[    1.622387] I : [File] : drivers/gpu/arm/mali400/mali/linux/mali_kernel_linux.c; [Line] : 407; [Func] : mali_module_init(); svn_rev_string_from_arm of this mali_ko is '', rk_ko_ver is '5', built at '10:45:53', on 'Apr 12 2024'.
[    1.622662] pcieport 0001:10:00.0: PME: Signaling with IRQ 107
[    1.622851] Mali: 
[    1.622858] Mali device driver loaded
[    1.622886] ALSA device list:
[    1.622897]   #0: rockchip,hdmi0
[    1.623038] pcieport 0001:10:00.0: AER: enabled with IRQ 108
[    1.623337] Waiting for root device PARTUUID=7049fe81-1c1f-4a85-8730-76cb1ef3c63f...
[    1.629615] pci_bus 0002:21: busn_res: [bus 21-2f] end is updated to 21
[    1.629683] pci 0002:20:00.0: BAR 0: no space for [mem size 0x40000000]
[    1.629729] pci 0002:20:00.0: BAR 0: failed to assign [mem size 0x40000000]
[    1.629745] pci 0002:20:00.0: BAR 1: no space for [mem size 0x40000000]
[    1.629765] pci 0002:20:00.0: BAR 1: failed to assign [mem size 0x40000000]
[    1.629788] pci 0002:20:00.0: BAR 8: assigned [mem 0xf0200000-0xf02fffff]
[    1.629809] pci 0002:20:00.0: BAR 6: assigned [mem 0xf0300000-0xf030ffff pref]
[    1.629833] pci 0002:20:00.0: BAR 7: assigned [io  0x100000-0x100fff]
[    1.629870] pci 0002:21:00.0: BAR 2: assigned [mem 0xf0200000-0xf020ffff 64bit]
[    1.629949] pci 0002:21:00.0: BAR 4: assigned [mem 0xf0210000-0xf0213fff 64bit]
[    1.630012] pci 0002:21:00.0: BAR 0: assigned [io  0x100000-0x1000ff]
[    1.630054] pci 0002:20:00.0: PCI bridge to [bus 21]
[    1.630068] pci 0002:20:00.0:   bridge window [io  0x100000-0x100fff]
[    1.630090] pci 0002:20:00.0:   bridge window [mem 0xf0200000-0xf02fffff]
[    1.634119] pcieport 0002:20:00.0: PME: Signaling with IRQ 118
[    1.634584] pcieport 0002:20:00.0: AER: enabled with IRQ 119
[    1.636650] dwmmc_rockchip fe2b0000.mmc: Successfully tuned phase to 270
[    1.636681] mmc1: new ultra high speed SDR50 SDHC card at address aaaa
[    1.637289] mmcblk1: mmc1:aaaa SL16G 14.8 GiB 
[    1.644366]  mmcblk1: p1 p2 p3 p4 p5 p6
[    1.645401] mmc0: Host Software Queue enabled
[    1.645437] mmc0: new HS200 MMC card at address 0001
[    1.646011] mmcblk0: mmc0:0001 A3A551 28.9 GiB 
[    1.646242] rk-pcie 3c0000000.pcie: PCIe Linking... LTSSM is 0x3
[    1.648299] mmcblk0boot0: mmc0:0001 A3A551 4.00 MiB 
[    1.649841] mmcblk0boot1: mmc0:0001 A3A551 4.00 MiB 
[    1.651354] mmcblk0rpmb: mmc0:0001 A3A551 16.0 MiB, chardev (237:0)
[    1.669625] VFS: Mounted root (squashfs filesystem) readonly on device 179:3.
[    1.671849] devtmpfs: mounted
[    1.672901] rk-pcie 3c0000000.pcie: PCIe Linking... LTSSM is 0x3
[    1.677660] Freeing unused kernel memory: 6144K
[    1.699500] rk-pcie 3c0000000.pcie: PCIe Linking... LTSSM is 0x3
[    1.700076] Run /sbin/init as init process
[    1.726304] rk-pcie 3c0000000.pcie: PCIe Linking... LTSSM is 0x3
[    1.753454] rk-pcie 3c0000000.pcie: PCIe Linking... LTSSM is 0x3
[    1.926728] init: Console is alive
[    1.927022] init: - watchdog -
[    2.738867] kmodloader: loading kernel modules from /etc/modules-boot.d/*
[    2.758587] r8125: loading out-of-tree module taints kernel.
[    2.764148] r8125 2.5Gigabit Ethernet driver 9.010.01-NAPI loaded
[    2.764485] r8125 0002:21:00.0: enabling device (0000 -> 0003)
[    2.788771] r8125: This product is covered by one or more of the following patents: US6,570,884, US6,115,776, and US6,327,625.
[    2.790875] r8125  Copyright (C) 2022 Realtek NIC software team <nicfae@realtek.com> 
[    2.790875]  This program comes with ABSOLUTELY NO WARRANTY; for details, please see <http://www.gnu.org/licenses/>. 
[    2.790875]  This is free software, and you are welcome to redistribute it under certain conditions; see <http://www.gnu.org/licenses/>. 
[    2.791322] r8125 2.5Gigabit Ethernet driver 9.010.01-NAPI loaded
[    2.791501] r8125 0001:11:00.0: enabling device (0000 -> 0003)
[    2.813394] r8125: This product is covered by one or more of the following patents: US6,570,884, US6,115,776, and US6,327,625.
[    2.815447] r8125  Copyright (C) 2022 Realtek NIC software team <nicfae@realtek.com> 
[    2.815447]  This program comes with ABSOLUTELY NO WARRANTY; for details, please see <http://www.gnu.org/licenses/>. 
[    2.815447]  This is free software, and you are welcome to redistribute it under certain conditions; see <http://www.gnu.org/licenses/>. 
[    2.817139] kmodloader: done loading kernel modules from /etc/modules-boot.d/*
[    2.823090] init: - preinit -
[    4.199622] rk-pcie 3c0000000.pcie: PCIe Link Fail, LTSSM is 0x3, hw_retries=0
[    5.066731] eth1: 0xffffffc00bc30000, 1e:3a:7f:36:2a:bd, IRQ 152
Press the [f] key and hit [enter] to enter failsafe mode
Press the [1], [2], [3] or [4] key and hit [enter] to select the debug level
[    6.536271] rk_pcie_establish_link: 132 callbacks suppressed
[    6.536323] rk-pcie 3c0000000.pcie: PCIe Linking... LTSSM is 0x3
[    6.562940] rk-pcie 3c0000000.pcie: PCIe Linking... LTSSM is 0x3
[    6.589588] rk-pcie 3c0000000.pcie: PCIe Linking... LTSSM is 0x3
[    6.616283] rk-pcie 3c0000000.pcie: PCIe Linking... LTSSM is 0x3
[    6.642953] rk-pcie 3c0000000.pcie: PCIe Linking... LTSSM is 0x3
[    6.669614] rk-pcie 3c0000000.pcie: PCIe Linking... LTSSM is 0x3
[    6.696222] rk-pcie 3c0000000.pcie: PCIe Linking... LTSSM is 0x3
[    6.722952] rk-pcie 3c0000000.pcie: PCIe Linking... LTSSM is 0x3
[    6.749615] rk-pcie 3c0000000.pcie: PCIe Linking... LTSSM is 0x3
[    6.776275] rk-pcie 3c0000000.pcie: PCIe Linking... LTSSM is 0x3
[    7.850956] r8125: eth1: link up
[    7.851149] IPv6: ADDRCONF(NETDEV_CHANGE): eth1: link becomes ready
[    8.099707] rk-pcie 3c0000000.pcie: PCIe Link Fail, LTSSM is 0x3, hw_retries=1
[    9.129759] rk-pcie 3c0000000.pcie: failed to initialize host
[   10.242394] overlay-resize: Root device mmcblk1
[   10.406762] overlay-resize: Overlay partition /dev/mmcblk1p6 (disk /dev/mmcblk1)
[   10.479421] overlay-resize: EXT4 filesystem
[   10.685733] overlay-resize: Filesystem successfully checked (0)
[   11.267317] overlay-resize: Partition 6 resized to 31116254s
[   11.267513] overlay-resize: Partition /dev/mmcblk1p6 end sector 1933311 -> 31116254
[   11.267626] overlay-resize: Resizing filesystem on partition /dev/mmcblk1p6...
[   12.863564] platform fe710000.tsadc: deferred probe pending
[   14.945306] overlay-resize: Filesystem resized
[   15.022783] SWUPDATE: Idblock version fe07abc05b388eaf106cff71f6b88c9f
[   15.097828] SWUPDATE: U-Boot version 2017.09-gitAUTOINC+4695fbcfba_642a85dd55-tano13
[   15.120227] SWUPDATE: U-Boot startup version 1.0.0-tano1.rk0
[   15.145999] SWUPDATE: Kernel version 6.1.57-tano-rk-standard-gea9e2a9344-tano0.2.1.20.1.0
[   15.161124] SWUPDATE: Read-only filesystem version 2024-05-13-23-07-10-UTC
[   15.295840] mount_root: /dev/mmcblk1p1: p1, rw, start 8388608, size 8388608
[   15.302088] mount_root: /dev/mmcblk1p2: p2, rw, start 16777216, size 67108864
[   15.302600] mount_root: /dev/mmcblk1p3: p3, rw, start 83886080, size 402653184 [rootfs]
[   15.308782] mount_root: /dev/mmcblk1p4: p4, rw, start 486539264, size 67108864
[   15.310874] mount_root: /dev/mmcblk1p5: p5, rw, start 553648128, size 402653184
[   15.317101] mount_root: /dev/mmcblk1p6: p6, rw, start 956301312, size 14975221248 [overlay]
[   15.317362] mount_root: root filesystem on the /dev/mmcblk1p3 partition of /dev/mmcblk1 (rw) device
[   15.338848] mount_root: founded suitable overlay partition /dev/mmcblk1p6
[   15.344760] mount_root: loading kmods from internal overlay
[   15.458336] kmodloader: loading kernel modules from //etc/modules-boot.d/*
[   15.463589] kmodloader: done loading kernel modules from //etc/modules-boot.d/*
[   15.612889] EXT4-fs (mmcblk1p6): mounted filesystem with ordered data mode. Quota mode: disabled.
[   15.902395] block: attempting to load /tmp/ext4_cfg/upper/etc/config/fstab
[   15.907015] block: unable to load configuration (fstab: Entry not found)
[   15.907284] block: attempting to load /tmp/ext4_cfg/etc/config/fstab
[   15.907610] block: unable to load configuration (fstab: Entry not found)
[   15.907835] block: attempting to load /etc/config/fstab
[   15.915641] block: extroot: not configured
[   16.059349] EXT4-fs (mmcblk1p6): unmounting filesystem.
[   16.228152] EXT4-fs (mmcblk1p6): mounted filesystem with ordered data mode. Quota mode: disabled.
[   16.317118] block: attempting to load /tmp/ext4_cfg/upper/etc/config/fstab
[   16.317535] block: unable to load configuration (fstab: Entry not found)
[   16.317782] block: attempting to load /tmp/ext4_cfg/etc/config/fstab
[   16.318134] block: unable to load configuration (fstab: Entry not found)
[   16.318373] block: attempting to load /etc/config/fstab
[   16.319295] block: extroot: not configured
[   16.323346] mount_root: overlay filesystem has not been fully initialized yet
[   16.329276] mount_root: switching to ext4 overlay
[   16.342199] overlayfs: "xino" feature enabled using 32 upper inode bits.
[   16.692456] Root filesystem mounted
[   17.158875] urandom-seed: Seed file not found (/etc/urandom.seed)
[   17.279039] procd: - watchdog -
[   17.297235] procd: - ubus -
[   17.479058] procd: - init -
Please press Enter to activate this console.
[   18.960760] kmodloader: loading kernel modules from /etc/modules.d/*
[   18.976101] tun: Universal TUN/TAP device driver, 1.6
[   18.998955] usbcore: registered new interface driver cdc_ncm
[   19.000193] usbcore: registered new interface driver cdc_wdm
[   19.001492] cryptodev: driver 1.12 loaded.
[   19.002777] gre: GRE over IPv4 demultiplexor driver
[   19.010490] PPTP driver version 0.8.5
[   19.012586] usbcore: registered new interface driver qmi_wwan
[   19.023196] xt_time: kernel timezone is -0000
[   19.024117] usbcore: registered new interface driver cdc_mbim
[   19.039632] kmodloader: done loading kernel modules from /etc/modules.d/*
[   26.794270] Cgroup memory moving (move_charge_at_immigrate) is deprecated. Please report your usecase to linux-mm@kvack.org if you depend on this functionality.
[   28.129826] udevd[2003]: starting version 3.2.10
[   28.174792] udevd[2003]: starting eudev-3.2.10
[   37.028066] eth1: 0xffffffc00bc30000, 1e:3a:7f:36:2a:bd, IRQ 152
[   37.160198] br-lan: port 1(eth1) entered blocking state
[   37.160245] br-lan: port 1(eth1) entered disabled state
[   37.160595] device eth1 entered promiscuous mode
[   37.235179] eth0: 0xffffffc00bc10000, 1a:3a:7f:36:2a:bd, IRQ 120
[   39.730694] r8125: eth1: link up
[   39.732963] br-lan: port 1(eth1) entered blocking state
[   41.954241] br-lan: port 1(eth1) entered learning state
[   41.954389] br-lan: port 1(eth1) entered forwarding state
[   41.954471] IPv6: ADDRCONF(NETDEV_CHANGE): br-lan: link becomes ready


tanowrt login: root
Password: 
 _______            __          __   _ 
|__   __|           \ \        / /  | |    Embedded Linux Distribution
   | | __ _ _ __   __\ \  /\  / / __| |_   by Tano Systems
   | |/ _` | '_ \ / _ \ \/  \/ / '__| __|  
   | | (_| | | | | (_) \  /\  /| |  | |_   (c) 2018-2024 Tano Systems LLC
   |_|\__,_|_| |_|\___/ \/  \/ |_|   \__|  https://tano-systems.com

   Board:    FriendlyElec NanoPi R5C (SD)
   Release:  Kirkstone
   Revision: eef138dd0520474604fccbe4e63f441066dc38b3
             2024-05-13 23:07:10 UTC

[root@tanowrt ~]#
